[01;34mmodule[m mylibrary[31m;[m 

[01;34mimport[m std[31m.[mstdio[31m:[mwriteln[31m;[m

[01;34mvoid[m [01;30msayhi[m[31m()[m[31m{[m
	[01;30mwriteln[m[31m([m[31m"Say Hi"[m[31m);[m
[31m}[m

