{
	"fileVersion": 1,
	"versions": {
		"diet-ng": "1.8.1",
		"eventcore": "0.9.28",
		"libasync": "0.8.6",
		"memutils": "1.0.10",
		"mir-linux-kernel": "1.0.1",
		"openssl": "3.3.3",
		"openssl-static": "1.0.2+3.0.8",
		"stdx-allocator": "2.77.5",
		"taggedalgebraic": "0.11.22",
		"vibe-container": "1.3.0",
		"vibe-core": "2.8.1",
		"vibe-d": "0.9.8"
	}
}
