{
	"fileVersion": 1,
	"versions": {
		"arsd-official": "11.5.3",
		"canvasity": "1.0.2",
		"colors": "0.0.3",
		"dplug": "14.7.4",
		"gamut": "3.1.2",
		"gtk-d": "3.10.0",
		"intel-intrinsics": "1.11.22",
		"raylib-d": "5.5.1"
	}
}
